ISSS624 - Take-home Exercise 2: Applied Spatial Interaction Models - Case Study of Singapore public bus commuter flows
…
The output above confirms that there are no duplicating records.

The next step is to group by origin_grid_id and destination_grid_id to create a new field called morning_peak_trips which calculates the number of trips between hexagon i (origin) and hexagon j (destination).

od_data3 <- od_data2 %>%
  group_by(origin_grid_id, destination_grid_id) %>%
  summarise(morning_peak_trips = sum(TRIPS))

`summarise()` has grouped output by 'origin_grid_id'. You can override using
the `.groups` argument.

od_data3

# A tibble: 66,639 × 3
# Groups:   origin_grid_id [818]
   origin_grid_id destination_grid_id morning_peak_trips
            <int>               <int>              <dbl>
 1             23                  67                  1
 2             23                  87                  1
 3             23                 128                  4
 4             23                 154                  3
 5             23                 175                 93
 6             23                 176                  1
 7             44                  23                  1
 8             44                  67                  2
 9             44                  86                  1
10             44                  88                  2
# ℹ 66,629 more rows
…
