ISSS624 - In-Class Exercise 2B: Global and Local Measures of Spatial Association - sfdep methods
…
Next, local_gstar_perm() of sfdep package will be used to compute local Gi* statistics as shown in the code chunk below.

HCSA <- wm_idw %>% 
  mutate(local_Gi = local_gstar_perm(
    GDPPC, nb, wt, nsim = 99),
         .before = 1) %>%
  unnest(local_Gi)
HCSA

Simple feature collection with 88 features and 16 fields
Geometry type: POLYGON
Dimension:     XY
Bounding box:  xmin: 108.7831 ymin: 24.6342 xmax: 114.2544 ymax: 30.12812
Geodetic CRS:  WGS 84
# A tibble: 88 × 17
   gi_star   e_gi    var_gi p_value   p_sim p_folded_sim skewness kurtosis nb   
     <dbl>  <dbl>     <dbl>   <dbl>   <dbl>        <dbl>    <dbl>    <dbl> <nb> 
 1  0.0416 0.0114   6.41e-6  0.0493 9.61e-1         0.7      0.35    0.875 <int>
 2 -0.333  0.0106   3.84e-6 -0.0941 9.25e-1         1        0.5     0.661 <int>
 3  0.281  0.0126   7.51e-6 -0.151  8.80e-1         0.9      0.45    0.640 <int>
 4  0.411  0.0118   9.22e-6  0.264  7.92e-1         0.6      0.3     0.853 <int>
 5  0.387  0.0115   9.56e-6  0.339  7.34e-1         0.62     0.31    1.07  <int>
 6 -0.368  0.0118   5.91e-6 -0.583  5.60e-1         0.72     0.36    0.594 <int>
 7  3.56   0.0151   7.31e-6  2.61   9.01e-3         0.06     0.03    1.09  <int>
 8  2.52   0.0136   6.14e-6  1.49   1.35e-1         0.2      0.1     1.12  <int>
 9  4.56   0.0144   5.84e-6  3.53   4.17e-4         0.04     0.02    1.23  <int>
10  1.16   0.0104   3.70e-6  1.82   6.86e-2         0.12     0.06    0.416 <int>
# ℹ 78 more rows
# ℹ 8 more variables: wts <list>, NAME_2 <chr>, ID_3 <int>, NAME_3 <chr>,
#   ENGTYPE_3 <chr>, County <chr>, GDPPC <dbl>, geometry <POLYGON [°]>
…
